[
  {
    "ctf": "HackTheBox",
    "challenge": "Canape",
    "link": "https://blog.raw.pm/en/HackTheBox-Canape-write-up/",
    "lang": "en",
    "author": "noraj",
    "keywords": "exploit, network, recon, python"
  }
]
