[
  {
    "ctf": "HackTheBox",
    "challenge": "Delivery",
    "link": "https://blog.raw.pm/en/HackTheBox-Delivery-write-up/",
    "lang": "en",
    "author": "noraj",
    "keywords": "web, EoP, linux"
  }
]
