[
  {
    "ctf": "HackTheBox",
    "challenge": "Nest",
    "link": "https://blog.raw.pm/en/HackTheBox-Nest-write-up/",
    "lang": "en",
    "author": "noraj",
    "keywords": "exploit, network, recon, SMB"
  }
]
