[
  {
    "ctf": "HackTheBox",
    "challenge": "Traverxec",
    "link": "https://blog.raw.pm/en/HackTheBox-Traverxec-write-up/",
    "lang": "en",
    "author": "noraj",
    "keywords": "exploit, network, recon"
  }
]
