[
  {
    "ctf": "TryHackMe",
    "challenge": "Bolt",
    "link": "https://blog.raw.pm/en/TryHackMe-Bolt-write-up/",
    "lang": "en",
    "author": "noraj"
  },
  {
    "ctf": "TryHackMe",
    "challenge": "Bolt",
    "link": "https://corshinecorshine.github.io/posts/Bolt/",
    "lang": "en",
    "author": "corshinesec"
  }
]
