[
  {
    "ctf": "TryHackMe",
    "challenge": "Linux Agency",
    "link": "https://blog.raw.pm/en/TryHackMe-Linux-Agency-write-up/",
    "lang": "en",
    "author": "noraj"
  },
  {
    "ctf": "TryHackMe",
    "challenge": "Linux Agency",
    "link": "https://hamdisevben.medium.com/tryhackme-linux-agency-writeup-walkthrough-more-than-linux-f218dcc5ed2b",
    "lang": "en",
    "author": "h4md153v63n"
  }
]
